^C:\USERS\LASLO\SOURCE\REPOS\SYMM_CRYPT_DRAGA\LAB1\LAB1\DEBUG\LAB1.OBJ|C:\USERS\LASLO\SOURCE\REPOS\SYMM_CRYPT_DRAGA\LAB1\LAB1\DEBUG\SOURCE_LAB1.OBJ
/OUT:"C:\USERS\LASLO\SOURCE\REPOS\SYMM_CRYPT_DRAGA\LAB1\DEBUG\LAB1.EXE" /INCREMENTAL /NOLOGO KERNEL32.LIB USER32.LIB GDI32.LIB WINSPOOL.LIB COMDLG32.LIB ADVAPI32.LIB SHELL32.LIB OLE32.LIB OLEAUT32.LIB UUID.LIB ODBC32.LIB ODBCCP32.LIB /MANIFEST /MANIFESTUAC:"level='asInvoker' uiAccess='false'" /manifest:embed /DEBUG:FASTLINK /PDB:"C:\USERS\LASLO\SOURCE\REPOS\SYMM_CRYPT_DRAGA\LAB1\DEBUG\LAB1.PDB" /SUBSYSTEM:CONSOLE /TLBID:1 /DYNAMICBASE /NXCOMPAT /IMPLIB:"C:\USERS\LASLO\SOURCE\REPOS\SYMM_CRYPT_DRAGA\LAB1\DEBUG\LAB1.LIB" /MACHINE:X86 DEBUG\LAB1.OBJ
DEBUG\SOURCE_LAB1.OBJ
